[
    {     
        "name": "El Igua",
        "area": "2.176,67 metros cuadrados",
        "description": "Este lote se caracteriza por tener una mezcla de palmas de coco con esbeltas palmeras que ademàs de decorar la casa de tus sueños le proporcionarán frescura y belleza.",
    "video": "https://www.youtube.com/embed/rAaLyzAb8q0?rel=0"
    }
]