[
    {     
        "name": "Los Balcones",
        "area": "4.592,52 metros cuadrados",
        "description": "Si eres amante de los espacios amplios rodeados de naturaleza, este lote es ideal para ti, es el más grande del Condominio. Cuenta con áreas planas e inclinadas que facilitan el diseño y construcción de vivienda aprovechando la altura con vista al horizonte.",
        "video": "https://www.youtube.com/embed/aPhFNKcz9wo?rel=0"
    }
]