[
    {     
        "name": "Los Almendros",
        "area": "1.076,11 metros cuadrados",
        "description": "Este lote se caracteriza por tener una mezcla de palmas de coco con esbeltas palmeras que ademàs de decorar la casa de tus sueños le proporcionarán frescura y belleza.",
        "video": "https://www.youtube.com/embed/UMV7GNFkstM?rel=0"
    }
]