[
    {     
        "name": "La Ceiba",
        "area": "993,96 metros cuadrados",
        "description": "Este lote se caracteriza por tener una mezcla de palmas de coco con esbeltas palmeras que ademàs de decorar la casa de tus sueños le proporcionarán frescura y belleza.",
           "video": "https://www.youtube.com/embed/aPhFNKcz9wo?rel=0"
    }
]