[
    {     
        "name": "El Namay",
        "area": "1.089,75 metros cuadrados",
        "description": "Ubicados en sector de privilegio con abundante vegetación y el disfrute próximo de la sede social y servicio deportivo.",
        "video": "https://www.youtube.com/embed/NvHMLLOfK-Y?rel=0"
    }
]